{
	"info": {
		"_postman_id": "36347b82-66ab-4b57-93d0-02074a14e690",
		"name": "coffee-backend",
		"schema": "https://schema.getpostman.com/json/collection/v2.1.0/collection.json",
		"_exporter_id": "7405373"
	},
	"item": [
		{
			"name": "types",
			"item": [
				{
					"name": "Get All",
					"request": {
						"method": "GET",
						"header": [],
						"url": {
							"raw": "{{host}}/types",
							"host": [
								"{{host}}"
							],
							"path": [
								"types"
							]
						}
					},
					"response": []
				},
				{
					"name": "Get One",
					"request": {
						"method": "GET",
						"header": [],
						"url": {
							"raw": "{{host}}/types/:id",
							"host": [
								"{{host}}"
							],
							"path": [
								"types",
								":id"
							],
							"variable": [
								{
									"key": "id",
									"value": "1"
								}
							]
						}
					},
					"response": []
				},
				{
					"name": "Add New",
					"request": {
						"method": "POST",
						"header": [],
						"body": {
							"mode": "raw",
							"raw": "{\r\n    \"name\": \"new type\"\r\n}",
							"options": {
								"raw": {
									"language": "json"
								}
							}
						},
						"url": {
							"raw": "{{host}}/types",
							"host": [
								"{{host}}"
							],
							"path": [
								"types"
							]
						}
					},
					"response": []
				},
				{
					"name": "Update",
					"request": {
						"method": "PATCH",
						"header": [],
						"body": {
							"mode": "raw",
							"raw": "{\r\n    \"name\": \"update type1\"\r\n}",
							"options": {
								"raw": {
									"language": "json"
								}
							}
						},
						"url": {
							"raw": "{{host}}/types/:id",
							"host": [
								"{{host}}"
							],
							"path": [
								"types",
								":id"
							],
							"variable": [
								{
									"key": "id",
									"value": "5"
								}
							]
						}
					},
					"response": []
				},
				{
					"name": "Delete",
					"request": {
						"method": "DELETE",
						"header": [],
						"url": {
							"raw": "{{host}}/types/:id",
							"host": [
								"{{host}}"
							],
							"path": [
								"types",
								":id"
							],
							"variable": [
								{
									"key": "id",
									"value": "4"
								}
							]
						}
					},
					"response": []
				}
			]
		},
		{
			"name": "products",
			"item": [
				{
					"name": "Get All",
					"request": {
						"method": "GET",
						"header": [],
						"url": {
							"raw": "{{host}}/products",
							"host": [
								"{{host}}"
							],
							"path": [
								"products"
							]
						}
					},
					"response": []
				},
				{
					"name": "Get One",
					"request": {
						"method": "GET",
						"header": [],
						"url": {
							"raw": "{{host}}/products/:id",
							"host": [
								"{{host}}"
							],
							"path": [
								"products",
								":id"
							],
							"variable": [
								{
									"key": "id",
									"value": "5"
								}
							]
						}
					},
					"response": []
				},
				{
					"name": "Add New",
					"request": {
						"method": "POST",
						"header": [],
						"body": {
							"mode": "raw",
							"raw": "{        \r\n        \"name\": \"Americano 3\",\r\n        \"price\": 45,\r\n        \"type\": {\r\n            \"id\": 1,\r\n            \"name\": \"drink2\"\r\n        }\r\n    }",
							"options": {
								"raw": {
									"language": "json"
								}
							}
						},
						"url": {
							"raw": "{{host}}/products",
							"host": [
								"{{host}}"
							],
							"path": [
								"products"
							]
						}
					},
					"response": []
				},
				{
					"name": "Update",
					"request": {
						"method": "PATCH",
						"header": [],
						"body": {
							"mode": "raw",
							"raw": "{\r\n        \"id\": 5,\r\n        \"name\": \"Cake 23\",\r\n        \"price\": 75,\r\n        \"type\": {\r\n            \"id\": 1,\r\n            \"name\": \"drink\"\r\n        }\r\n    }",
							"options": {
								"raw": {
									"language": "json"
								}
							}
						},
						"url": {
							"raw": "{{host}}/products/:id",
							"host": [
								"{{host}}"
							],
							"path": [
								"products",
								":id"
							],
							"variable": [
								{
									"key": "id",
									"value": "5"
								}
							]
						}
					},
					"response": []
				},
				{
					"name": "Delete",
					"request": {
						"method": "DELETE",
						"header": [],
						"url": {
							"raw": "{{host}}/products/:id",
							"host": [
								"{{host}}"
							],
							"path": [
								"products",
								":id"
							],
							"variable": [
								{
									"key": "id",
									"value": "4"
								}
							]
						}
					},
					"response": []
				}
			]
		},
		{
			"name": "orders",
			"item": [
				{
					"name": "Get All",
					"request": {
						"method": "GET",
						"header": [],
						"url": {
							"raw": "{{host}}/orders",
							"host": [
								"{{host}}"
							],
							"path": [
								"orders"
							]
						}
					},
					"response": []
				},
				{
					"name": "Get One",
					"request": {
						"method": "GET",
						"header": [],
						"url": {
							"raw": "{{host}}/orders/:id",
							"host": [
								"{{host}}"
							],
							"path": [
								"orders",
								":id"
							],
							"variable": [
								{
									"key": "id",
									"value": "4"
								}
							]
						}
					},
					"response": []
				},
				{
					"name": "Add New",
					"request": {
						"method": "POST",
						"header": [],
						"body": {
							"mode": "raw",
							"raw": "{\r\n    \"orderItems\": [\r\n        {\r\n            \"productId\": 1,\r\n            \"qty\": 1\r\n        },\r\n        {\r\n            \"productId\": 2,\r\n            \"qty\": 2\r\n        },\r\n        {\r\n            \"productId\": 4,\r\n            \"qty\": 1\r\n        }\r\n    ],\r\n    \"userId\": 2\r\n}",
							"options": {
								"raw": {
									"language": "json"
								}
							}
						},
						"url": {
							"raw": "{{host}}/orders",
							"host": [
								"{{host}}"
							],
							"path": [
								"orders"
							]
						}
					},
					"response": []
				},
				{
					"name": "Update",
					"request": {
						"method": "PATCH",
						"header": [],
						"body": {
							"mode": "raw",
							"raw": "{\r\n        \"id\": 5,\r\n        \"name\": \"Cake 23\",\r\n        \"price\": 75,\r\n        \"type\": {\r\n            \"id\": 1,\r\n            \"name\": \"drink\"\r\n        }\r\n    }",
							"options": {
								"raw": {
									"language": "json"
								}
							}
						},
						"url": {
							"raw": "{{host}}/products/:id",
							"host": [
								"{{host}}"
							],
							"path": [
								"products",
								":id"
							],
							"variable": [
								{
									"key": "id",
									"value": "5"
								}
							]
						}
					},
					"response": []
				},
				{
					"name": "Delete",
					"request": {
						"method": "DELETE",
						"header": [],
						"url": {
							"raw": "{{host}}/orders/:id",
							"host": [
								"{{host}}"
							],
							"path": [
								"orders",
								":id"
							],
							"variable": [
								{
									"key": "id",
									"value": "4"
								}
							]
						}
					},
					"response": []
				}
			]
		}
	],
	"event": [
		{
			"listen": "prerequest",
			"script": {
				"type": "text/javascript",
				"exec": [
					""
				]
			}
		},
		{
			"listen": "test",
			"script": {
				"type": "text/javascript",
				"exec": [
					""
				]
			}
		}
	],
	"variable": [
		{
			"key": "host",
			"value": "http://localhost:3000",
			"type": "string"
		}
	]
}